﻿"nodegoat ID",ID,Name,Type,"Institute Name","Institute Attr","Institute Attr_2","Part of institute ID","Part of institute",Location
ngJZ2I265Jh0syfFdJ4yu,400222,Fürstabtei,Fürstabtei,,,,,,
ngKA2J366Ki13zgaeKjz3,400223,Zunft,Zunft,,,,,,
ngLB2K467L52vahZfMUa6,400224,Generalgericht,Generalgericht,,,,,,
ngMC2L568M638biEgLFbv,400225,Dreizehnerkollegium,Dreizehnerkollegium,,,,,,
ngND2E669M749cjhhNWc8,400226,"collegium theologicum","collegium theologicum",,,,,,
ngOE2F760OG5adkmiNnd7,400227,Hofkapelle,Hofkapelle,,,,,,
ngPF2G861PX6yelTjPIey,400228,Juristenuniversität,Juristenuniversität,,,,,,
ngQG2H962QY71fmUkQZfb,400229,Pfarrei,Pfarrei,,,,,,
ngRH3I063Rp81gnFlR2gc,400230,Konzil,Konzil,,,,,,
ngTJ3K265UB0fiprnUCie,400232,Reichsmoderationstag,Reichsmoderationstag,,,,,,
ngUK3P366TM1djqIoUtjd,400233,"concilium universitatis","concilium universitatis",,,,,,
ngVL3Q467UN26krDpVuke,400234,"collegium doctorum","collegium doctorum",,,,,,
ngXN3S669W747mtTrYQm0,400236,"Sodalitas Ingolstatiensis","Sodalitas Ingolstatiensis",,,,,,
ngYO3T760X852nuosYRn1,400237,Hochgericht,Hochgericht,,,,,,
ngZP3U861ZR69ovttYSo2,400238,Präsenzkammer,Präsenzkammer,,,,,,
ngBR4S063Az82qxPvAUrq,400240,Reichsdeputationstag,Reichsdeputationstag,,,,,,
ngEU4H366FW1ntayyEXut,400243,"Gymnasium Academicum","Gymnasium Academicum",,,,,,
ngFV4M467FX2pubBzEYvu,400244,Kurienuniversität,Kurienuniversität,,,,,,
ngGW4R568Fe37vceaFfwv,400245,"bischöfliches Gericht","bischöfliches Gericht",,,,,,
ngHX4S669IZ49wdDbGAxw,400246,"collegium Romanum","collegium Romanum",,,,,,
ngIY4x760IQ5rxeEcHByx,400247,Burgkapelle,Burgkapelle,,,,,,
ngJZ4g861J963yfFdKCzy,400248,Regentschaftsrat,Regentschaftsrat,,,,,,
ngKA4B962JC7wzgieKjz9,400249,Konsistorium,Konsistorium,,,,,,
ngMC5D164LU93biUgL3bx,400251,Reichshofrat,Reichshofrat,,,,,,
ngND5k265Ml0zcjhhM4cy,400252,Domstift,Domstift,,,,,,
ngOE5l366Nm18dkiiOndx,400253,Akademie,Akademie,,,,,,
ngPF5m467O526elTjOIey,400254,"Kaiserlicher Bund","Kaiserlicher Bund",,,,,,
ngQG5n568QI3bfmUkPpf9,400255,"Kleiner Rat","Kleiner Rat",,,,,,
ngRH5o669Rp47gnJlRKg6,400256,Hansetag,Hansetag,,,,,,
ngSI5p760S85choWmRLh7,400257,Königshof,Königshof,,,,,,
ngTJ5q861T961ipFnTsi8,400258,Ständegericht,Ständegericht,,,,,,
ngUK5r962VM71jqQoTtj3,400259,Kurfürstentag,Kurfürstentag,,,,,,
ngVL6s063WD8gkrZpWOk4,400260,Bauhütte,Bauhütte,,,,,,
ngWM6N164VO9glsEqVFl1UiJ,400261,Konzilsuniversität,Konzilsuniversität,,,,,,
ngYO6P366XQ1jnuosYxn5WkL,400263,Fürstentag,Fürstentag,,,,,,
ngAQ6p568BI35pwEuZzp9,400265,Gericht,Gericht,,,,,,
ngBR6u669AT4kqxNvB8qm,400266,Provinzialsynode,Provinzialsynode,,,,,,
ngCS6v760BU57rywwDVr7,400267,Hofrat,Hofrat,,,,,,
ngEU6x962D07qtauyFNt1,400269,Hofkammer,Hofkammer,,,,,,
ngFV7y063FX8oubFzEYu0,400270,Kammergericht,Kammergericht,,,,,,
ngGW7z164GY93vcOaHZv5,400271,Beginenhof,Beginenhof,,,,,,
ngHX7a265HP0swdbbHQw4,400272,Stiftung,Stiftung,,,,,,
ngIY7b366I414xeMcIhx7,400273,Kastlanei,Kastlanei,,,,,,
ngJZ7c467KB2vyfzdJ6y6,400274,Hochstift,Hochstift,,,,,,
ngKA7d568LS3tzgYeKjz9,400275,Reichsritterschaft,Reichsritterschaft,,,,,,
ngLB7e669MT48ahHfMUa8,400276,Lateran,Lateran,,,,,,
ngND7Y861Nl6zcjBhOGc2,400278,Burggrafengericht,Burggrafengericht,,,,,,
ngPF8A063P181elXjQYea,400280,Vogtgericht,Vogtgericht,,,,,,
ngRH8g265QJ0cgnDlSKg6,400282,Ordenskapitel,Ordenskapitel,,,,,,
ngSI8h366RK17hoqmTLhb,400283,Generalvikariat,Generalvikariat,,,,,,
ngTJ8i467SB25ipPnTCi6,400284,Provinzialgericht,Provinzialgericht,,,,,,
ngVL8k669VN46krNpVOk6,400286,Kanzlei,Kanzlei,,,,,,
ngWM8l760WE5flsAqVvl1,400287,"Vier leden van Vlaanderen","Vier leden van Vlaanderen",,,,,,
ngXN8m861XF60mtJrW0mi,400288,"Winchester College","Winchester College",,,,,,
ngYO8n962Yw79nuwsYRnh,400289,Rittergericht,Rittergericht,,,,,,
ngZP9o063Z18jovVtYSoi,400290,"Rat der Fünfzehn","Rat der Fünfzehn",,,,,,
ngAQ9H164Z29kpwquAzp1,400291,Ordensstudium,Ordensstudium,,,,,,
ngBR9I265A306qxPvAaq2,400292,Bruderschaft,Bruderschaft,,,,,,
ngCS9J366CU13ryYwDLrn,400293,Artistenuniversität,Artistenuniversität,,,,,,
ngDT9K467DL2msztxC6s6,400294,Konferenz,Konferenz,,,,,,
ngEU9L568E63qtaEyFXt9,400295,Krankenhaus,Krankenhaus,,,,,,
ngFV9M669F749ubRzEYu0,400296,Universitätsgericht,Universitätsgericht,,,,,,
ngGW9N760HY5svceaF9vr,400297,Rat,Rat,,,,,,
ngHX9O861IP6qwdZbH0w0,400298,Tag,Tag,,,,,,
ngIY9T962HQ7txeycIRx1,400299,"collegium juridicum","collegium juridicum",,,,,,
ngND0Q063MF8wcjNhMGcw,400300,"Sodalitas litteraria Rhenana","Sodalitas litteraria Rhenana",,,,,,
ngOE0R164NG95dkeiPXdz,400301,Offizialat,Offizialat,,,,,,
ngPF0S265OX03elDjPIe2,400302,"Apostolische Signatur","Apostolische Signatur",,,,,,
ngQG0T366Po1afmQkQpfz,400303,Domkapitelhaus,Domkapitelhaus,,,,,,
ngRH0U467Qp27gnDlQqga,400304,Kolleg,Kolleg,,,,,,
ngSI0V568SA3bhoOmTBh7,400305,Kapelle,Kapelle,,,,,,
ngTJ0W669TB48ipXnTsic,400306,Registratur,Registratur,,,,,,
ngVL0Y861Vt60krtpV0kg,400308,Friedhof,Friedhof,,,,,,
ngWM0Z962XO74lsIqWPlf,400309,"Sodalitas Staupitziana","Sodalitas Staupitziana",,,,,,
ngXN1A063YF81mtvrWQm4,400310,"Raad van Beroerten","Raad van Beroerten",,,,,,
ngYO1F164XQ9jnuQsZHnj,400311,Ehegericht,Ehegericht,,,,,,
ngZP1G265YR06ovLtYIok,400312,Terminei,Terminei,,,,,,
ngBR1W467B525qxFvAaqk,400314,"collegium Germanicum","collegium Germanicum",,,,,,
ngCS1X568DU3oryswCVr5,400315,"Hof van Gelre en Zutphen","Hof van Gelre en Zutphen",,,,,,
ngDT1Y669EL4mszRxCcs0,400316,Inquisitionsgericht,Inquisitionsgericht,,,,,,
ngEU1Z760FM59taEyDNtp,400317,"Kaiserliche Kanzlei","Kaiserliche Kanzlei",,,,,,
ngFV1E861EN62ubzzFOuq,400318,Oberhofgericht,Oberhofgericht,,,,,,
ngGW1F962Fe70vcYaF1v1,400319,Provinzialkonzil,Provinzialkonzil,,,,,,
ngHX2G063G18rwdLbIQws,400320,"Collège ""des Martins""","Collège ""des Martins""",,,,,,
ngIY2H164H294xeycIRxt,400321,"Rat der Dreizehn","Rat der Dreizehn",,,,,,
ngKA2J366Ki13zgWeJDz7,400323,Datarie,Datarie,,,,,,
ngMC2L568M638biIgMVb7,400325,"Sodalitas Coritiana","Sodalitas Coritiana",,,,,,
ngND2E669M749cjdhNmc6,400326,"österreichische Kanzlei","österreichische Kanzlei",,,,,,
ngOE2F760OG57dkCiNXd9,400327,Schiedsgericht,Schiedsgericht,,,,,,
ngPF2G861PX6yelLjP0e0,400328,Reichsgericht,Reichsgericht,,,,,,
ngRH3I063Rp80gnplSKg4,400330,Tagsatzung,Tagsatzung,,,,,,
ngTJ3K265UB0fiprnSMic,400332,Obergericht,Obergericht,,,,,,
ngVL3Q467UN26krZpUOk4,400334,Kommission,Kommission,,,,,,
ngWM3R568Vu30lsOqWvl9,400335,"Päpstliche Kanzlei","Päpstliche Kanzlei",,,,,,
ngXN3S669W747mtBrWwm0,400336,Juristenkollegium,Juristenkollegium,,,,,,
ngZP3U861ZR69ovxtYSoi,400338,Reichsheer,Reichsheer,,,,,,
ngAQ3L962AS7jpwOuKTp1,400339,Parlement,Parlement,,,,,,
ngBR4S063Az83qxPvAUrq,400340,Provinzialrat,Provinzialrat,,,,,,
ngCS4T164DK9lryGwDVsr,400341,Kapitelshaus,Kapitelshaus,,,,,,
ngDT4Y265DL0pszVxDcts,400342,Regiment,Regiment,,,,,,
ngEU4H366E418tayyEXut,400343,Archidiakonat,Archidiakonat,,,,,,
ngGW4R568Fe36vcGaGfwv,400345,Ratsgericht,Ratsgericht,,,,,,
ngHX4S669IZ40wdDbIAxw,400346,"geheimer Rat","geheimer Rat",,,,,,
ngIY4x760IQ5sxeUcJByx,400347,Staatsrat,Staatsrat,,,,,,
ngJZ4g861J962yfJdJizy,400348,Ritterstift,Ritterstift,,,,,,
ngKA4B962JC79zgCeJjzt,400349,Rektoratsgericht,Rektoratsgericht,,,,,,
ngLB5C063KT8uahLfLEau,400350,Spital,Spital,,,,,,
ngMC5D164LU93biYgLlb1,400351,Deputationstag,Deputationstag,,,,,,
ngPF5m467O526elLjPoe8,400354,Dompropstei,Dompropstei,,,,,,
ngQG5n568QI3bfmYkPpf9,400355,Priesterkollegium,Priesterkollegium,,,,,,
ngRH5o669Rp47gnNlRKg6,400356,Bibliothek,Bibliothek,,,,,,
ngSI5p760S85choWmTBh9,400357,Abtei,Abtei,,,,,,
ngTJ5q861T961ipjnTsi8,400358,Diözesansynode,Diözesansynode,,,,,,
ngUK5r962VM71jqMoTtj3,400359,"Rat der Sechzig","Rat der Sechzig",,,,,,
ngVL6s063WD8gkrVpWOk4,400360,Provinzialkapitel,Provinzialkapitel,,,,,,
ngWM6N164VO9glsEqVPl1Uip,400361,Hoftag,Hoftag,,,,,,
ngXN6O265WP0imtPrW4m5VjS,400362,Landgericht,Landgericht,,,,,,
ngBR6u669AT4kqxrvAUq0,400366,"concilium facultatis","concilium facultatis",,,,,,
ngDT6w861CL6nszZxC0s0,400368,"Domus Universitatis","Domus Universitatis",,,,,,
ngEU6x962D07qtacyDNtp,400369,Kirche,Kirche,,,,,,
ngGW7z164GY93vcKaGfv1,400371,Kaiserhof,Kaiserhof,,,,,,
ngIY7b366I414xeMcH5xt,400373,Schweizergarde,Schweizergarde,,,,,,
ngJZ7c467KB2vyfzdJCy8,400374,Priorat,Priorat,,,,,,
ngKA7d568LS3tzgYeJ7zv,400375,Kammer,Kammer,,,,,,
ngLB7e669MT48ahLfKka6,400376,Kantorei,Kantorei,,,,,,
ngMC7j760LE5xbiYgLFbv,400377,Kurie,Kurie,,,,,,
ngND7Y861Nl6zcjFhM0cy,400378,Konsistorialrat,Konsistorialrat,,,,,,
ngOE7Z962Om74dkSiNHd3,400379,Herrentrinkstube,Herrentrinkstube,,,,,,
ngQG8B164RI9afmokQ3f3,400381,Universität,Universität,,,,,,
ngRH8g265QJ0cgnZlSAg4,400382,"Schwäbisches Reichsprälatenkollegium","Schwäbisches Reichsprälatenkollegium",,,,,,
ngSI8h366RK17hommTLhb,400383,Lateransynode,Lateransynode,,,,,,
ngTJ8i467SB26ipTnUMi8,400384,"Univ. der Ultramontanen","Univ. der Ultramontanen",,,,,,
ngUK8j568Ts3fjqUoVDjf,400385,"Hof van Holland","Hof van Holland",,,,,,
ngVL8k669VN46krlpWOke,400386,"Königl. Kammergericht","Königl. Kammergericht",,,,,,
ngWM8l760WE5flsmqXPl7,400387,Jungrat,Jungrat,,,,,,
ngXN8m861XF60mtnrYGm0,400388,Generalkongregation,Generalkongregation,,,,,,
ngYO8n962Yw79nussYRnh,400389,Verlag,Verlag,,,,,,
ngZP9o063Z18iovttZIok,400390,"Rat von Brabant","Rat von Brabant",,,,,,
ngAQ9H164Z29kpwOuBTp5,400391,Synode,Synode,,,,,,
ngBR9I265A305qxPvCKqm,400392,Fakultät,Fakultät,,,,,,
ngCS9J366CU1oryUwBLrn,400393,Paedagogium,Paedagogium,,,,,,
ngDT9K467DV29szVxCMs6,400394,"schwäbische Ritterschaft","schwäbische Ritterschaft",,,,,,
ngEU9L568E63otaIyFXt9,400395,Reichskammergerichtskanzlei,Reichskammergerichtskanzlei,,,,,,
ngGW9N760HY58vcOaGfvp,400397,Artistenschule,Artistenschule,,,,,,
ngIY9T962HQ7uxegcH1x1,400399,Konzilsgericht,Konzilsgericht,,,,,,
ngND0Q063MF8wcjRhMGcw,400400,Fraterhaus,Fraterhaus,,,,,,
ngOE0R164NG95dkSiNndx,400401,Reichstag,Reichstag,,,,,,
ngQG0T366Po1zfmUkPpf7,400403,Reichskreis,Reichskreis,,,,,,
ngRH0U467Qp26gnVlQ6gc,400404,Vikariatsgericht,Vikariatsgericht,,,,,,
ngSI0V568SK39hommSrhb,400405,"Schwäbischer Bund","Schwäbischer Bund",,,,,,
ngTJ0W669TB46ipnnSsi6,400406,Genossenschaft,Genossenschaft,,,,,,
ngUK0X760Us5djqooT9j9,400407,Rentkammer,Rentkammer,,,,,,
ngVL0Y861Vt62krtpUEkg,400408,"Domkapitel Konstanz","Domkapitel Konstanz",,,,,,
ngWM0Z962XE7glsSqWvl3,400409,Reformkommission,Reformkommission,,,,,,
ngYO1F164XQ9knuYsXxn1,400411,Domvikarie(n),Domvikarie(n),,,,,,
ngZP1G265YR07ovVtASoi,400412,"kaiserliches Heer","kaiserliches Heer",,,,,,
ngAQ1V366Ay18pwIuATp7,400413,"Alter Rat","Alter Rat",,,,,,
ngBR1W467B525qxJvB6q6,400414,Altar,Altar,,,,,,
ngCS1X568DU3oryKwDVr9,400415,Weltl.Gericht/Gerichte,Weltl.Gericht/Gerichte,,,,,,
ngEU1Z760FM58taQyENtp,400417,Stadtrat,Stadtrat,,,,,,
ngHX2G063Gf85wdfbIAw0,400420,Kardinalskollegium,Kardinalskollegium,,,,,,
ngIY2H164H293xeWcIhxr,400421,Konklave,Konklave,,,,,,
ngJZ2I265JR06yfNdJCys,400422,Herzogtum,Herzogtum,,,,,,
ngKA2J366Ki15zgSeJDzt,400423,Reichskammergericht,Reichskammergericht,,,,,,
ngLB2K467L52wahPfK6aw,400424,"Raad van Vlaanderen","Raad van Vlaanderen",,,,,,
ngND2E669M740cjZhOWc8,400426,Vatikan,Vatikan,,,,,,
ngOE2F760OG57dkeiOnd7,400427,"Geistl. Gericht/Gerichte","Geistl. Gericht/Gerichte",,,,,,
ngPF2G861PX6yelfjPYea,400428,Bursen,Bursen,,,,,,
ngQG2H962QY71fmgkRJfz,400429,"Sodalitas litteraria Hungarorum","Sodalitas litteraria Hungarorum",,,,,,
ngSI3J164TK94hoKmSLhb,400431,"Sodalitas litteraria Danubiana","Sodalitas litteraria Danubiana",,,,,,
ngTJ3K265UB0fipLnTsi6,400432,Rittergut,Rittergut,,,,,,
ngUK3L366VC18jqQoTNj3,400433,Schule,Schule,,,,,,
ngVL3Q467UN25krRpVOke,400434,Jesuitenorden,Jesuitenorden,,,,,,
ngWM3R568Vu38lsEqV7lh,400435,"Grosser Rat","Grosser Rat",,,,,,
ngXN3S669W74jmtFrW8m8,400436,"Staten van Holland","Staten van Holland",,,,,,
ngYO3T760YQ5inuKsXxn1,400437,Generalkapitel,Generalkapitel,,,,,,
ngZP3U861ZR61ovLtZIo0,400438,"Landsberger Bund","Landsberger Bund",,,,,,
ngAQ3p962BI7jpwuuKTp2,400439,Laterankonzil,Laterankonzil,,,,,,
ngBR4S063A185qxBvBarq,400440,Diözese,Diözese,,,,,,
ngCS4T164DK95ryGwCVsr,400441,Stadt,Stadt,"Name der Stadt (Nürnberg)",nein,nein,,,"Geo Ort"
ngDT4Y265DL06szPxDWts,400442,Schultheißengericht,Schultheißengericht,,,,,,
ngEU4H366FW1ptayyEXut,400443,Reichsregiment,Reichsregiment,,,,,,
ngFV4M467FX2rubTzFYvu,400444,Kurverein,Kurverein,,,,,,
ngGW4R568Fe3svcaaFZwv,400445,"Hof van Friesland","Hof van Friesland",,,,,,
ngHX4S669IZ46wdVbIAxw,400446,Damenstift,Damenstift,,,,,,
ngJZ4g861Jh60yfddKCzy,400448,Kloster,Kloster,,,,,,
ngKA4B962JC7vzgWeLTzv,400449,Regierung,Regierung,,,,,,
ngLB5C063KD84ahXfMUa2,400450,"Deutsche Nation","Deutsche Nation",,,,,,
ngMC5D164LU91bicgLFbv,400451,Klöster,Klöster,,,,,,
ngOE5l366N41ydkeiNHd7,400453,Hofgericht,Hofgericht,,,,,,
ngQG5n568QI3cfmgkPZf7,400455,Rathaus,Rathaus,,,,,,
ngRH5o669Rp48gnFlSAg8,400456,Vogtei,Vogtei,,,,,,
ngSI5p760S85dhoKmRLhb,400457,Hofkanzlei,Hofkanzlei,,,,,,
ngTJ5q861T962ipLnSsic,400458,Landtag,Landtag,,,,,,
ngUK5r962VM71jqIoUNj9,400459,"collegium poetarum et mathematicorum","collegium poetarum et mathematicorum",,,,,,
ngVL6s063WD8gkrJpU2kg,400460,Rittergesellschaft,Rittergesellschaft,,,,,,
ngWM6N164VO9glsAqWPl1UiZ,400461,Engelsburg,Engelsburg,,,,,,
ngXN6O265WP0imtLrXQm2VjK,400462,Gymnasium,Gymnasium,,,,,,
ngYO6P366XQ1jnuKsYRnkWkJ,400463,Landstände,Landstände,,,,,,
ngAQ6p568BI3lpwuuZTp5,400465,Domkapitel,Domkapitel,,,,,,
ngBR6q669CJ40qxvvBUqk,400466,"Geistliches Ministerium","Geistliches Ministerium",,,,,,
ngCS6v760BU59rywwCbrl,400467,Kreistag,Kreistag,,,,,,
ngDT6w861CL6oszxxDcs8,400468,Provinz,Provinz,,,,,,
ngEU6x962D070taAyFNtp,400469,Burse,Burse,,,,,,
ngGW7z164GY94vcYaGZvp,400471,Hansekontor,Hansekontor,,,,,,
ngHX7a265HP0twdZbHgw6,400472,Karzer,Karzer,,,,,,
ngJZ7c467KB2vyfRdKSyu,400474,Reichshofkammer,Reichshofkammer,,,,,,
ngKA7d568LC30zgWeJjz9,400475,Krankenhausdeputation,Krankenhausdeputation,,,,,,
ngLB7e669MT47ahbfKUaw,400476,Hof,Hof,,,,,,
ngMC7j760LE5wbicgMFbv,400477,Rentamt,Rentamt,,,,,,
ngND7Y861Nl6ycjBhMGc2,400478,Apotheke,Apotheke,,,,,,
ngOE7Z962Om72dkmiO1dz,400479,Schöffengericht/Schöppenstuhl,Schöffengericht/Schöppenstuhl,,,,,,
ngPF8A063P180elDjO2ea,400480,"gelehrte Donaugesellschaft","gelehrte Donaugesellschaft",,,,,,
ngQG8B164RI9zfmEkP3f3,400481,Priesterseminar,Priesterseminar,,,,,,
ngRH8g265QJ02gnNlSKga,400482,Generallandtag,Generallandtag,,,,,,
ngSI8h366RA1bhoOmTLh3,400483,Städtetag,Städtetag,,,,,,
ngTJ8i467SB26ipPnUMi8,400484,Druckerei,Druckerei,,,,,,
ngUK8j568Ts3fjqUoUtj5,400485,"Drei Bünde (Graubünden)","Drei Bünde (Graubünden)",,,,,,
ngVL8k669VN46krlpVOk6,400486,"Dekanat (Kirche)","Dekanat (Kirche)",,,,,,
ngXN8m861XF60mtrrWGm0,400488,Kaufleutestube,Kaufleutestube,,,,,,
ngYO8n962Yw79nussYxn3,400489,Domkustodie,Domkustodie,,,,,,
ngZP9o063Z18iovttASo4,400490,"Sodalitas litteraria Vistulana","Sodalitas litteraria Vistulana",,,,,,
ngAQ9H164Z29kpwSuBJp3,400491,"Domus Alemanorum","Domus Alemanorum",,,,,,
ngBR9I265A305qxTvCUq2,400492,"Theologische Lehranstalt","Theologische Lehranstalt",,,,,,
ngCS9J366CU1oryYwBLrn,400493,"Niederösterreichisches Regiment","Niederösterreichisches Regiment",,,,,,
ngDT9K467DV29szRxCMs6,400494,"Königl. Hofgericht","Königl. Hofgericht",,,,,,
ngEU9L568E63otaEyFNt7,400495,Kaplanei,Kaplanei,,,,,,
ngFV9M669F741ubJzF8uq,400496,"Schmalkaldischer Bund","Schmalkaldischer Bund",,,,,,
ngGW9N760HY58vcOaFZv1,400497,Tuchmachergilde,Tuchmachergilde,,,,,,
ngHX9O861IP6rwdPbHAw8,400498,Kirchenkonvent,Kirchenkonvent,,,,,,
ngIY9T962HQ7uxegcIhx9,400499,Partikularkonvent,Partikularkonvent,,,,,,
ngND0Q063MF8wcjVhMGcw,400500,Grafschaft,Grafschaft,,,,,,
ngOE0R164NG95dkOiNndx,400501,Kongress,Kongress,,,,,,
ngQG0T366Po1zfmQkRZfb,400503,Propstei,Propstei,,,,,,
ngRH0U467Qp26gnVlQAgc,400504,"Botanischer Garten","Botanischer Garten",,,,,,
ngTJ0W669TB46ipnnTCie,400506,Landkapitel,Landkapitel,,,,,,
ngVL0Y861Vt62krtpVOk2,400508,Landschaftsausschuss,Landschaftsausschuss,,,,,,
ngWM0Z962XE7glsWqWvlf,400509,Finanzrat,Finanzrat,,,,,,
ngZP1G265YR07ovDtY4o4,400512,Orden,Orden,,,,,,
ngAQ1V366Ay18pwEuZzp3,400513,Rotagericht,Rotagericht,,,,,,
ngBR1W467B525qxNvCUq4,400514,"Lutherische Gemeinde","Lutherische Gemeinde",,,,,,
ngCS1X568DU3oryGwDVrl,400515,"Raad van Holland","Raad van Holland",,,,,,
ngDT1Y669EV41sztxDWs0,400516,"Kaiserlicher Tag","Kaiserlicher Tag",,,,,,
ngEU1Z760FM58taIyFXt1,400517,"Domkapitel Basel","Domkapitel Basel",,,,,,
ngGW1F962Fe7svcaaHZvp,400519,Steuerkollegium,Steuerkollegium,,,,,,
ngHX2G063G18qwdZbHQw2,400520,Stiftsrat,Stiftsrat,,,,,,
ngIY2H164H292xeccJBx5,400521,Ärztekollegium,Ärztekollegium,,,,,,
ngJZ2I265JR06yfRdI4yu,400522,Reichskreistag,Reichskreistag,,,,,,
ngLB2K467L52wahLfLEau,400524,Kollegiatstift,Kollegiatstift,,,,,,
ngMC2L568M639biUgNVbx,400525,Reichsrat,Reichsrat,,,,,,
ngND2E669M740cjZhMGc6,400526,"Sodalitas litteraria Angilostadiensis","Sodalitas litteraria Angilostadiensis",,,,,,
ngPF2G861PX6yelBjOoey,400528,Landrat,Landrat,,,,,,
ngQG2H962QY71fmkkRJfz,400529,"Sodalitas litterarum","Sodalitas litterarum",,,,,,
ngTJ3K265UB0fipHnT4i4,400532,Gesellschaft,Gesellschaft,,,,,,
ngUK3L366VC18jqQoVDj5,400533,Vikariatshofgericht,Vikariatshofgericht,,,,,,
ngVL3Q467UN25krJpWOk4,400534,"Innerer Rat","Innerer Rat",,,,,,
ngXN3S669W74jmtnrWQm0,400536,Lektorium/Coll.Carolinum,Lektorium/Coll.Carolinum,,,,,,
ngYO3T760YQ5inuGsXxnh,400537,Artistenkolleg,Artistenkolleg,,,,,,
ngZP3U861ZR61ovptZSo2,400538,"Apostolische Kammer","Apostolische Kammer",,,,,,
ngAQ3p962A070pwWuKTp2,400539,Buchmesse,Buchmesse,,,,,,
ngBR4S063BT8kqxBvBarq,400540,Schulwesen,Schulwesen,,,,,,
ngCS4T164DK94ryGwCVsr,400541,Fürstentum,Fürstentum,,,,,,
ngDT4Y265Db0mszZxEWts,400542,"Domus facultatis artium","Domus facultatis artium",,,,,,
ngEU4H366FW1otayyEXut,400543,Kirchenrat,Kirchenrat,,,,,,
ngFV4M467FX24ubRzEYvu,400544,Priesterbruderschaft,Priesterbruderschaft,,,,,,
ngGW4R568Fe3rvcOaGfwv,400545,Pönitentiarie,Pönitentiarie,,,,,,
ngHX4S669IZ47wdZbHgxw,400546,Archiv,Archiv,,,,,,
ngIY4x760IA57xeQcIhyx,400547,Stadtgericht,Stadtgericht,,,,,,
ngJZ4g861Jh69yfhdJizy,400548,Konsistorialgericht,Konsistorialgericht,,,,,,
ngLB5C063KD84ahXfLka4,400550,"Niederösterreichische Kanzlei","Niederösterreichische Kanzlei",,,,,,
ngMC5D164LU91bikgLlbv,400551,Lehengericht,Lehengericht,,,,,,
ngND5k265Ml03cjVhNGc6,400552,Bundestag,Bundestag,,,,,,
ngOE5l366N41ydkeiNnd7,400553,"Univ. der Cismontanen","Univ. der Cismontanen",,,,,,
ngPF5m467O527elTjP6e6,400554,"Rat der Oberalten","Rat der Oberalten",,,,,,
ngQG5n568QI3cfmgkQZfb,400555,Oberrat,Oberrat,,,,,,
ngRH5o669Rp47gnplRKga,400556,"kaiserliche Regierung","kaiserliche Regierung",,,,,,
ngSI5p760S85dhoKmTBhd,400557,Gefängnis,Gefängnis,,,,,,
ngTJ5q861T961iprnTsi8,400558,Offizialgericht,Offizialgericht,,,,,,
ngYO3P770ZG51nuCsZRn9WkL,2575937,"Hessische Stipendiatenanstalt","Hessische Stipendiatenanstalt",,,,,,
ngAQ9R174ZS92pwWuAJp4YmN1AN,2940391,"Obödienz (Inst)","Obödienz (Inst)",,,,,,
ngVL8M679UD40krppVOk8ThM6WI,3265886,Kirchenprovinz,Kirchenprovinz,,,,,,
ngXN8O871WF63mtFrWGm9VjI8XK,3276788,Burg,Burg,,,,,,
ngYO8P972Xw7inuQsXxn2WkL9Xh,3276789,Region,Region,,,,,,
ngZP9Q073Yx8kovptY2o4XlY0ZC,3276790,Ort,Ort,,,,,,
ngAQ9R174Zy91pwAuATp6YmL1BN,3276791,Markgrafschaft,Markgrafschaft,,,,,,
ngBR9S275Az0nqxBvA4q7ZnE2BE,3276792,Schindanger,Schindanger,,,,,,
ngDT9U477CV25szLxEMsmBps4CG,3276794,Schloss,Schloss,,,,,,
ngEU9V578DW38taAyDXtpCqR5ER,3276795,Zenden,Zenden,,,,,,
ngFV9W679EX48ubXzGOupDry6GI,3276796,Hofmark,Hofmark,,,,,,
ngGW9X770FY50vcaaFZvsEsB7Gz,3276797,Lehen,Lehen,,,,,,
ngHX9Y871GZ63wdLbGQw8FtO8IK,3276798,Herrschaft,Herrschaft,,,,,,
ngIY9Z972HQ7sxeWcHhx0Guf9Hb,3276799,Kurfürstentum,Kurfürstentum,,,,,,
ngND0M073Ml83cjZhOGcwLzA,3276800,Insel,Insel,,,,,,
ngCS6J770Ca5nryswCVrmAoJ,3316267,Amtsbezirk,Amtsbezirk,,,,,,
ngDT6K871EL6nszbxEMs1BpQ,3316268,Land,Land,,,,,,
ngEU6L972FW7otauyDNt1CqL,3316269,Superintendentur,Superintendentur,,,,,,
ngFV7M073GX82ubFzGOuoDrW,3316270,Patriarchat,Patriarchat,,,,,,
ngGW7R174Fe95vcaaGPv2EsJ,3316271,Kustodie,Kustodie,,,,,,
ngHX7S275GZ03wdLbHgw7FtO,3316272,Landvogtei,Landvogtei,,,,,,
ngIY7L376H41uxeAcJRxtGub,3316273,Ballei,Ballei,,,,,,
ngJZ7M477Ih2vyfFdIiysHvA,3316274,Freigrafschaft,Freigrafschaft,,,,,,
ngKA7N578Ji37zgYeKjztIwV,3316275,Obödienz,Obödienz,,,,,,
ngLB7O679L74uahZfLUawJxK,3316276,Generalsuperintendentur,Generalsuperintendentur,,,,,,
ngND7Q871OF63cjFhM0cxLzc,3316278,Landgrafschaft,Landgrafschaft,,,,,,
ngOE7R972PW7adkiiNHdyMah,3316279,Pfalzgrafschaft,Pfalzgrafschaft,,,,,,
ngPF8S073QH8belnjO2ezNbK,3316280,Königreich,Königreich,,,,,,
ngQG8X174PY9bfmkkQ3fzOcf,3316281,Territorium,Territorium,,,,,,
ngYO8P972Xw79nuUsZRnjWkT9Yh,3444489,"Consistorium academicum","Consistorium academicum",,,,,,
ngRH5C679RJ48gnDlRKgdPdQ,3466356,Armenhaus,Armenhaus,,,,,,
ngIY2Z174H292xeIcIRx4Gux,3472021,Bischofsgericht,Bischofsgericht,,,,,,
ngBR6I679Az40qxXvB8qlZnM,3482166,Knappschaft,Knappschaft,,,,,,
ngND5Y275Nl0ycjNhMmc4LzE,3487152,Ständetag,Ständetag,,,,,,
ngTJ8K477SB28ipLnS6icRfG4UG,3487584,Dechanei,Dechanei,,,,,,
ngQG2H972Qo72fmMkQJf9Ocn,3487629,Fürstentümer,Fürstentümer,,,,,,
ngGW4v578F637vcOaHZv0Esd,3489445,Schöffenkolleg,Schöffenkolleg,,,,,,
ngGW4v578F635vcwaFZv0Esd,3489845,Kronland,Kronland,,,,,,
ngHX9Y871GZ60wdLbIQwsFte8GK,3503398,Lehnhof,Lehnhof,,,,,,
ngBR1W477AJ25qxNvCKq8ZnA,3504714,"Comes palatinus","Comes palatinus",,,,,,
ngVL3k477Ut2hkrNpV6lk,3505434,"Ungarische Nation","Ungarische Nation",,,,,,
ngPF5A477P52belHjPIe5NbG,3509354,College,College,,,,,,
ngOE5Z376OW14dkWiPHdzMaZ,3520653,"Meissnische Nation","Meissnische Nation",,,,,,
ngEU1D770DM5otaMyENt2CqH,3521017,"Polnische Nation","Polnische Nation",,,,,,
ngMC2D578Lk36biggLFb6KyL,3521025,"Bayrische Nation","Bayrische Nation",,,,,,
ngSI3J174S29ehoEmRBhcQel,3521031,"Sächsische Nation","Sächsische Nation",,,,,,
ngAQ3L972Z07lpwAuBJp3,3521039,"Böhmische Nation","Böhmische Nation",,,,,,
ngCS4N174DK9mryQwCbro,3521041,"Rheinische Nation","Rheinische Nation",,,,,,
ngKA4d972Ji72zgKeLTztIwJ,3521049,"Österreichische Nation","Österreichische Nation",,,,,,
ngBR4I073A18lqxFvAaq4,3521840,Kurkreis,Kurkreis,Sachsen,"Sächsischer Kurkreis",,,,Wittenberg
ngTJ3W275Tr0cipBnS4i7,3560632,Ritterorden,Ritterorden,,,,,,
ngTJ5i871Sr62ipjnSsi8RfS,3560658,Universitätsnation,Universitätsnation,,,,400381,Universität,
ngKA4d972Ji79zgSeKDz1Iwz,3560749,Kollegium,Kollegium,,,,,,
ngCS4N174BK92ryKwCbro,3560941,Hospitalorden,Hospitalorden,,,,,,
ngZP9Q073Yx8lovttYyoiXls0Zi,3561690,Terminierbezirk,Terminierbezirk,,,,,,
ngDT9U477CV29szVxCcs5BpU4EG,3564194,Reichshofkanzlei,Reichshofkanzlei,,,,,,
ngHX4a679GP40wdVbHAwqFtS,3814646,Großfürstentum,Großfürstentum,,,,,,
ngQG5f578Po38fmEkQJfzOcD,3814755,Erzstift,Erzstift,,,,,,
ngIY9Z972HA71xeUcHBxrGub9IV,3817099,"Rat (Gericht)","Rat (Gericht)",,,,,,
ngTJ5E871TL63iprnTMicRfS,3819858,Reich,Reich,,,,,,
ngND7Q871M969cjVhM0c1Lzc,3820978,Concilium,Concilium,,,,,,
ngAQ9R174ZI96pwAuZJp4YmV1ZN,3821991,Fürstpropstei,Fürstpropstei,,,,,,
ngGW7N174G29qvcwaF3v2Esz,3822571,Bischofssitz,Bischofssitz,Konstanz,,,,,
ngMC7P770NU51bikgNVb2KyH,3836377,"Artisten- und Medizineruniversität","Artisten- und Medizineruniversität",,,,,,
ngVL3s477V527krNpU6kh,3837834,Kontor,Kontor,,,,,,
ngMC2D578NE37bicgLVb7KyT,3864025,Republik,Republik,,,,,,
ngLB5a073L18xahbfMUa5JxC,3867150,Burggrafschaft,Burggrafschaft,,,,,,
ngWM6H174Wu9hlsAqWvlgUil,3871161,Komitat/Gespanschaft,Komitat/Gespanschaft,"Sáros (Scharosch)","Königreich Ungarn","comitatus Sarossiensis",,,Eperies
ngEU6L972D07ptayyEdtqCqt,3872669,Gut,Gut,,,,,,
ngRH8U275RZ02gnFlRKgbPdk,3877582,Komturei,Komturei,Würzburg,"Deutscher Orden",,400369,Kirche,würzburg
ngGW7N174F293vcKaGPvrEsB,3978671,Gebiet,Gebiet,,,,,,
ngKA2F376JC17zgKeLTzwIwh,3981123,Kreis,Kreis,,,,,,
ngSI3J174Rq92hoWmTLh1QeD,3990031,"Universität Altes Reich","Universität Altes Reich",,,,,,
ngHX2C073Gf80wdHbIQwrFtK,3993120,Zuckermühle,Zuckermühle,,,,,,
ngND2E679M748cjlhNGcyLzQ,3995526,"Universität Italien","Universität Italien",,,,,,
ngOE2F770OG5xdkOiOndaMaF,3995527,"Universität Frankreich","Universität Frankreich",,,,,,
ngPF2G871PX60elDjPoe3NbC,3995528,"Universität unbekannt","Universität unbekannt",,,,,,
ngCS9T376BK15rywwCbr4AoP3Bv,3999093,"Französische ev. Gemeinde","Französische ev. Gemeinde",,,,,,"Frankfurt am Main"
ngXN6I275XP05mtrrXwm6VjA,4019262,Starostei,Starostei,,,,,,
ngSI5D770TA51hoGmRrhbQeD,4020457,Woiwodschaft,Woiwodschaft,"Vilnius (Wilna)",,,,,Vilnius
